6 Estabilidad térmica de la columna de agua | Prácticas de Ecología de Sistemas Acuáticos
…
#Lo he recogido todo en una sola línea.
Crystal_dia <- Crystal_2012 %>% filter(between(hour(sampledate), 11, 16)) %>% group_by(daynum, depth_calculated) %>% summarise_if(is.numeric, mean, na.rm = TRUE)

#Exportamos los datos
write_csv(Crystal_dia, "Datos/Crystal_dia.csv") #Guardamos la información en un archivo

6.1 Perfil vertical

Todavía no hemos visualizado lo que acabamos de hacer. Vamos a ver como ha quedado la tabla.

Crystal_dia

## # A tibble: 3,365 x 9
##    daynum depth_calculated year4 sample_time water_temp    pH chlorophylla
##     <dbl>            <dbl> <dbl>       <dbl>      <dbl> <dbl>        <dbl>
##  1     82                0  2012         NaN       8.32  7.59         1.06
##  2     82                1  2012         NaN       6.54  6.56         1.24
##  3     82                2  2012         NaN       6.41  6.27         1.35
##  4     82                3  2012         NaN       5.92  6.10         1.81
##  5     82                4  2012         NaN       5.74  6.10         2.07
##  6     82                5  2012         NaN       5.66  6.37         2.31
##  7     82                6  2012         NaN       5.51  6.34         2.63
##  8     82                7  2012         NaN       5.30  6.34         2.86
##  9     82                8  2012         NaN       5.14  6.32         2.95
## 10     82                9  2012         NaN       5.03  6.38         3.31
## # … with 3,355 more rows, and 2 more variables: opt_do2 <dbl>,
## #   opt_dosat_raw <dbl>
…
#Mantenemos la fecha y convertimos la profundidad en variables (columnas) incluyendo el valor de temperatura en cada columna.
Crystal_ts <- Crystal_temp %>% spread(key = depth_calculated, value = water_temp)

Vamos a convertir el día del año en formato fecha y a cambiarle el nombre a las columnas.

#Convertimos los días del año en fechas
Crystal_ts <- Crystal_ts %>% mutate_at(vars(daynum), as.Date, origin = "2012-01-01")
#Cambiamos el nombre de la columna "daynum" a "datetime"
Crystal_ts <- Crystal_ts %>% rename(datetime = daynum)
#Añadimos "wtr_" delante del número de cada profundidad
Crystal_ts <- Crystal_ts %>% rename_if(is.numeric, ~paste("wtr_", ., sep = ""))
Crystal_ts

## # A tibble: 189 x 20
##    datetime   wtr_0 wtr_1 wtr_2 wtr_3 wtr_4 wtr_5 wtr_6 wtr_7 wtr_8 wtr_9 wtr_10
##    <date>     <dbl> <dbl> <dbl> <dbl> <dbl> <dbl> <dbl> <dbl> <dbl> <dbl>  <dbl>
##  1 2012-03-23  8.32  6.54  6.41  5.92  5.74  5.66  5.51  5.30  5.14  5.03   4.98
##  2 2012-03-24 NA     7.03  6.79  6.23  5.85  5.79  5.61  5.43  5.29  5.13   5.04
##  3 2012-03-25 NA     7.78  7.12  6.32  6.06  5.90  5.78  5.67  5.42  5.28   5.11
##  4 2012-03-26  8.20  8.11  7.99  7.07  6.04  5.88  5.66  5.60  5.43  5.26   5.06
##  5 2012-03-27 NA     7.18  7.04  7     6.05 NA    NA    NA    NA     5.11   5.13
##  6 2012-03-28 NA     6.50  6.35  6.32  6.30  6.26  6.20  6.16  5.98  5.83   5.46
##  7 2012-03-29 NA     6.36  6.34  6.32  6.31  6.31  6.28  6.12  5.81  5.74   5.69
##  8 2012-03-30  6.02  6.60  6.28  6.25  6.22  6.18  6.16  6.15  6.04  5.98   5.86
##  9 2012-03-31 NA     6.23  6.23  6.21  6.18  6.16  6.15  6.13  6.12  6.12   6.06
## 10 2012-04-01  6.18  6.16  6.10  6.08  6.07  6.06  6.06  6.04  6.04  6.04   6.02
## # … with 179 more rows, and 8 more variables: wtr_11 <dbl>, wtr_12 <dbl>,
## #   wtr_13 <dbl>, wtr_14 <dbl>, wtr_15 <dbl>, wtr_16 <dbl>, wtr_17 <dbl>,
## #   wtr_18 <dbl>
…
