5 Paquetes importantes y sus funciones básicas | Prácticas de Ecología de Sistemas Acuáticos
…
Vemos que en las profundidades de 0 metros y 1 metro hay muchos más registros que en el resto. Por lo tanto, la variabilidad diaria puede no estar igual de bien recogida para todas las profundidades. En la siguiente sección vamos a seleccionar una franja horaria y a obtener un valor medio por profundidad.

En el código que acabamos de ejecutar habréis encontrado algunos elementos nuevos. Tres funciones nuevas, group_by(), summarise() y n(), que nos permiten agrupar en función de las variables que queramos, resumir la información de la tabla y contar el número de elementos que hay en un grupo, respectivamente. Y un nuevo operador denominado “pipe”, %>%. El operador %>% nos permite concatenar funciones de una manera más fácil de visualizar. Lo vemos con un ejemplo más sencillo:

#Si queremos seleccionar la variable temperatura pero sólo de la profundidad de 1 metro
#Puedo hacerlo inclyendo funciones dentro de funciones:
select(filter(Crystal_2012, depth_calculated == 1), daynum)

## # A tibble: 149,282 x 1
##    daynum
##     <dbl>
##  1     82
##  2     82
##  3     82
##  4     82
##  5     82
##  6     82
##  7     82
##  8     82
##  9     82
## 10     82
## # … with 149,272 more rows

#O concatenandolas:
Crystal_2012 %>% filter(depth_calculated == 1)  %>% select(daynum)

## # A tibble: 149,282 x 1
##    daynum
##     <dbl>
##  1     82
##  2     82
##  3     82
##  4     82
##  5     82
##  6     82
##  7     82
##  8     82
##  9     82
## 10     82
## # … with 149,272 more rows
…
Con esta pequeña presentación y uniendo lo que hemos visto hasta ahora, quizás, podríamos intentar calcular la temperatura media de cada profundidad para cada día teniendo en cuenta sólo los valores medidos entre las 11:00 de la mañana y las 16:00 de la tarde.

Vamos a intentarlo:

#nos quedamos sólo con las muestras tomadas entres las 11:00 y las 16:00
Crystal_dia <- Crystal_2012 %>% filter(hour(sampledate) >= 11 & hour(sampledate) <= 16)
#Calculamos la temperatura media por día y profundidad
Crystal_dia %>% group_by(daynum, depth_calculated) %>% summarise(mean(water_temp))

## `summarise()` regrouping output by 'daynum' (override with `.groups` argument)

## # A tibble: 3,365 x 3
## # Groups:   daynum [189]
##    daynum depth_calculated `mean(water_temp)`
##     <dbl>            <dbl>              <dbl>
##  1     82                0               8.32
##  2     82                1               6.54
##  3     82                2               6.41
##  4     82                3               5.92
##  5     82                4               5.74
##  6     82                5               5.66
##  7     82                6               5.51
##  8     82                7               5.30
##  9     82                8               5.14
## 10     82                9               5.03
## # … with 3,355 more rows
…
